<svg width="24" height="24" viewBox="0 0 24 24" fill="none" xmlns="http://www.w3.org/2000/svg">
<path d="M20.9524 9.4611C20.8363 9.1209 20.5294 8.8806 20.1712 8.8527L15.0401 8.445L12.8198 3.5301C12.6749 3.207 12.3535 3 11.9998 3C11.6461 3 11.3248 3.207 11.1799 3.5292L8.95954 8.445L3.82847 8.8527C3.47656 8.8806 3.17325 9.1119 3.05354 9.444C2.93384 9.7761 3.01844 10.1478 3.27135 10.3944L7.06317 14.0907L5.72213 19.8975C5.63933 20.2566 5.78423 20.6301 6.08754 20.8398C6.24235 20.946 6.42055 21 6.59966 21C6.77336 21 6.94797 20.9496 7.09918 20.8488L11.9998 17.5818L16.9005 20.8488C17.2137 21.0576 17.625 21.0495 17.931 20.8272C18.2352 20.6049 18.3693 20.2152 18.2658 19.8534L16.6197 14.0934L20.7022 10.4196C20.9695 10.1784 21.0676 9.8022 20.9524 9.4611Z" fill="#FFD957"/>
</svg>
