<svg width="24" height="24" viewBox="0 0 24 24" fill="none" xmlns="http://www.w3.org/2000/svg">
<path d="M6.94141 5.00002C6.94114 5.53046 6.73017 6.03906 6.35491 6.41394C5.97965 6.78883 5.47084 6.99929 4.94041 6.99902C4.40997 6.99876 3.90137 6.78779 3.52649 6.41253C3.1516 6.03727 2.94114 5.52846 2.94141 4.99802C2.94167 4.46759 3.15264 3.95899 3.5279 3.5841C3.90316 3.20922 4.41197 2.99876 4.94241 2.99902C5.47284 2.99929 5.98144 3.21026 6.35633 3.58552C6.73121 3.96078 6.94167 4.46959 6.94141 5.00002ZM7.00141 8.48002H3.00141V21H7.00141V8.48002ZM13.3214 8.48002H9.34141V21H13.2814V14.43C13.2814 10.77 18.0514 10.43 18.0514 14.43V21H22.0014V13.07C22.0014 6.90002 14.9414 7.13002 13.2814 10.16L13.3214 8.48002Z" fill="black" fill-opacity="0.6"/>
</svg>
