<svg width="24" height="24" viewBox="0 0 24 24" fill="none" xmlns="http://www.w3.org/2000/svg">
<path d="M21 6.65812C20.3357 6.93846 19.625 7.1265 18.8786 7.21538C19.6393 6.77436 20.225 6.08376 20.5 5.25641C19.7857 5.66325 18.9964 5.95726 18.1536 6.11453C17.4821 5.42735 16.5214 5 15.4607 5C13.4214 5 11.7679 6.58291 11.7679 8.53504C11.7679 8.81197 11.8 9.08205 11.8643 9.33846C8.79643 9.19145 6.075 7.78291 4.25357 5.64615C3.93571 6.16923 3.75357 6.77436 3.75357 7.42393C3.75357 8.65128 4.40357 9.73162 5.39643 10.3641C4.78929 10.347 4.22143 10.1897 3.725 9.92308C3.725 9.94017 3.725 9.95385 3.725 9.96752C3.725 11.6803 4.99643 13.1094 6.68571 13.4342C6.375 13.5162 6.05 13.5573 5.71429 13.5573C5.475 13.5573 5.24286 13.5368 5.01786 13.4957C5.48571 14.8974 6.85 15.9231 8.46429 15.947C7.20357 16.8974 5.61071 17.4615 3.87857 17.4615C3.58214 17.4615 3.28929 17.4444 3 17.4137C4.63214 18.4154 6.575 19 8.66071 19C15.45 19 19.1643 13.612 19.1643 8.9453C19.1643 8.79145 19.1643 8.63761 19.1536 8.48376C19.8786 7.99145 20.5036 7.36581 21 6.65812Z" fill="#fff" fill-opacity="0.7"/>
</svg>
