<svg width="48" height="48" viewBox="0 0 48 48" fill="none" xmlns="http://www.w3.org/2000/svg">
<path d="M19.4645 30.108C20.0838 30.108 20.6009 29.6023 20.6009 28.9716C20.6009 28.3523 20.0838 27.8409 19.4645 27.8409C18.8395 27.8409 18.3281 28.3523 18.3281 28.9716C18.3281 29.6023 18.8395 30.108 19.4645 30.108ZM23.9957 30.108C24.6151 30.108 25.1321 29.6023 25.1321 28.9716C25.1321 28.3523 24.6151 27.8409 23.9957 27.8409C23.3707 27.8409 22.8594 28.3523 22.8594 28.9716C22.8594 29.6023 23.3707 30.108 23.9957 30.108ZM28.527 30.108C29.1463 30.108 29.6634 29.6023 29.6634 28.9716C29.6634 28.3523 29.1463 27.8409 28.527 27.8409C27.902 27.8409 27.3906 28.3523 27.3906 28.9716C27.3906 29.6023 27.902 30.108 28.527 30.108Z" fill="#94999E"/>
</svg>
