<svg width="40" height="40" viewBox="0 0 40 40" fill="none" xmlns="http://www.w3.org/2000/svg">
<path d="M20.0007 8.3335C13.5677 8.3335 8.33398 13.5672 8.33398 20.0002C8.33398 26.4332 13.5677 31.6668 20.0007 31.6668C26.4337 31.6668 31.6673 26.4332 31.6673 20.0002C31.6673 13.5672 26.4337 8.3335 20.0007 8.3335ZM20.0007 29.3335C14.8545 29.3335 10.6673 25.1463 10.6673 20.0002C10.6673 14.854 14.8545 10.6668 20.0007 10.6668C25.1468 10.6668 29.334 14.854 29.334 20.0002C29.334 25.1463 25.1468 29.3335 20.0007 29.3335Z" fill="#12B4F7"/>
<path d="M18.834 18.8332H21.1673V25.8332H18.834V18.8332ZM18.834 14.1665H21.1673V16.4998H18.834V14.1665Z" fill="#12B4F7"/>
</svg>
