<svg width="24" height="24" viewBox="0 0 24 24" fill="none" xmlns="http://www.w3.org/2000/svg">
<path d="M20.7882 13.8529C20.8941 13.2706 21 12.6353 21 12C21 7.02353 16.9765 3 12 3C7.02353 3 3 7.02353 3 12C3 16.9765 7.02353 21 12 21C13.8 21 15.6 20.4706 17.0824 19.4118L15.9176 18.0353C14.7529 18.7765 13.4294 19.2 12.0529 19.2C8.02941 19.2 4.8 15.9706 4.8 12C4.8 8.02941 8.02941 4.8 12 4.8C15.9706 4.8 19.2 8.02941 19.2 12C19.2 12.5294 19.1471 13.0588 19.0412 13.5353C18.8294 14.4882 18.1412 14.7529 17.6647 14.7529C17.1882 14.7 16.6059 14.3294 16.5529 13.4824V12C16.5529 9.51177 14.5412 7.44706 12 7.44706C9.45882 7.44706 7.44706 9.51177 7.44706 12C7.44706 14.4882 9.45882 16.5529 12 16.5529C13.2706 16.5529 14.4353 16.0235 15.2294 15.1765C15.7059 15.9706 16.5 16.4471 17.5059 16.5529C17.6118 16.5529 17.6647 16.5529 17.7706 16.5529C18.4059 16.5529 19.0412 16.3412 19.5706 15.9176C20.1 15.4941 20.5235 14.9118 20.7353 14.2235C20.7353 14.1706 20.7882 14.1176 20.7882 14.0647C20.7882 14.0118 20.7882 13.9588 20.7882 13.8529ZM12 14.7529C10.4647 14.7529 9.24706 13.5353 9.24706 12C9.24706 10.4647 10.4647 9.24706 12 9.24706C13.5353 9.24706 14.7529 10.4647 14.7529 12C14.7529 13.5353 13.5353 14.7529 12 14.7529Z" fill="#fff" fill-opacity="0.6"/>
</svg>
