<svg width="24" height="24" viewBox="0 0 24 24" fill="none" xmlns="http://www.w3.org/2000/svg">
<path fill-rule="evenodd" clip-rule="evenodd" d="M11 4C14.8634 4 18 7.13657 18 11C18 14.8634 14.8634 18 11 18C7.13657 18 4 14.8634 4 11C4 7.13657 7.13657 4 11 4ZM11 2C15.968 2 20 6.032 20 11C20 13.124 19.263 15.0769 18.031 16.6168L21.2071 19.7929C21.5976 20.1834 21.5976 20.8166 21.2071 21.2071C20.8166 21.5976 20.1834 21.5976 19.7929 21.2071L16.6168 18.031C15.0769 19.263 13.124 20 11 20C6.032 20 2 15.968 2 11C2 6.032 6.032 2 11 2Z" fill="black" fill-opacity="0.6"/>
</svg>
