<svg width="20" height="20" viewBox="0 0 20 20" fill="none" xmlns="http://www.w3.org/2000/svg">
<rect width="20" height="20" rx="10" fill="#BCE052"/>
<path fill-rule="evenodd" clip-rule="evenodd" d="M15.7213 5.16889C16.0442 5.42832 16.0957 5.9004 15.8362 6.2233L9.01023 14.7195C8.8826 14.8784 8.69583 14.9785 8.49288 14.9968C8.28993 15.0151 8.08827 14.95 7.9343 14.8165L4.25876 11.6304C3.94577 11.3591 3.91198 10.8855 4.18329 10.5725C4.4546 10.2595 4.92827 10.2257 5.24126 10.497L8.3285 13.1731L14.6669 5.28383C14.9263 4.96092 15.3984 4.90946 15.7213 5.16889Z" fill="black" fill-opacity="0.6"/>
</svg>
