<svg width="24" height="24" viewBox="0 0 24 24" fill="none" xmlns="http://www.w3.org/2000/svg">
<path d="M12.0015 5.68067C13.0204 5.68067 13.8459 6.4874 13.8459 7.48319C13.8459 8.47479 13.0204 9.28151 12.0015 9.28151C10.9826 9.28151 10.1572 8.47479 10.1572 7.48319C10.1572 6.4874 10.9826 5.68067 12.0015 5.68067ZM12.0015 11.9622C14.5295 11.9622 16.5845 9.95378 16.5845 7.48319C16.5845 5.0084 14.5295 3 12.0015 3C9.47359 3 7.41426 5.0084 7.41426 7.48319C7.41426 9.94958 9.47359 11.9622 12.0015 11.9622ZM13.8029 15.3866C14.71 15.1849 15.5828 14.8361 16.391 14.3361C17.0015 13.9622 17.1821 13.1765 16.7995 12.5798C16.4168 11.9832 15.6086 11.8025 14.9981 12.1807C13.1752 13.3025 10.8278 13.3025 9.00497 12.1807C8.39019 11.8025 7.58623 11.9832 7.1993 12.5798C6.81667 13.1765 7.00154 13.9622 7.61203 14.3361C8.41598 14.8361 9.29302 15.1849 10.2002 15.3866L7.70661 17.8235C7.1993 18.3193 7.1993 19.1261 7.71091 19.6261C7.96456 19.8739 8.2956 20 8.63094 20C8.96198 20 9.30162 19.8739 9.55528 19.6261L12.0015 17.2353L14.4521 19.6261C14.9594 20.1218 15.7848 20.1218 16.2965 19.6261C16.8038 19.1261 16.8038 18.3193 16.2965 17.8235L13.8029 15.3866Z" fill="black" fill-opacity="0.6"/>
</svg>
