<svg width="24" height="24" viewBox="0 0 24 24" fill="none" xmlns="http://www.w3.org/2000/svg">
<path d="M16.9991 2.00012H19.6691C20.235 1.99011 20.785 2.18825 21.2145 2.55694C21.644 2.92562 21.9232 3.43918 21.9991 4.00012V11.0001C21.9232 11.5611 21.644 12.0746 21.2145 12.4433C20.785 12.812 20.235 13.0101 19.6691 13.0001H16.9991M9.99905 15.0001V19.0001C9.99905 19.7958 10.3151 20.5588 10.8777 21.1214C11.4403 21.684 12.2034 22.0001 12.9991 22.0001L16.9991 13.0001V2.00012H5.71905C5.23673 1.99466 4.76868 2.16371 4.40115 2.47611C4.03362 2.78851 3.79138 3.22321 3.71905 3.70012L2.33905 12.7001C2.29555 12.9868 2.31488 13.2794 2.39571 13.5579C2.47655 13.8363 2.61695 14.0938 2.8072 14.3126C2.99744 14.5314 3.23297 14.7062 3.49748 14.8249C3.76199 14.9436 4.04915 15.0034 4.33905 15.0001H9.99905Z" stroke="black" stroke-opacity="0.6" stroke-width="2" stroke-linecap="round" stroke-linejoin="round"/>
</svg>
