<svg width="32" height="32" viewBox="0 0 32 32" fill="none" xmlns="http://www.w3.org/2000/svg">
<path d="M27.9366 12.6148C27.7818 12.1612 27.3726 11.8408 26.8949 11.8036L20.0535 11.26L17.093 4.7068C16.8998 4.276 16.4714 4 15.9998 4C15.5282 4 15.0998 4.276 14.9065 4.7056L11.946 11.26L5.10462 11.8036C4.63541 11.8408 4.231 12.1492 4.07139 12.592C3.91179 13.0348 4.02459 13.5304 4.3618 13.8592L9.41757 18.7876L7.62951 26.53C7.5191 27.0088 7.71231 27.5068 8.11672 27.7864C8.32313 27.928 8.56074 28 8.79955 28C9.03115 28 9.26396 27.9328 9.46557 27.7984L15.9998 23.4424L22.534 27.7984C22.9516 28.0768 23.5 28.066 23.908 27.7696C24.3137 27.4732 24.4925 26.9536 24.3545 26.4712L22.1596 18.7912L27.603 13.8928C27.9594 13.5712 28.0902 13.0696 27.9366 12.6148Z" fill="#FFD957"/>
</svg>
