<svg width="24" height="24" viewBox="0 0 24 24" fill="none" xmlns="http://www.w3.org/2000/svg">
<path d="M18.4745 5.52548C16.8459 3.89687 14.6806 3 12.3775 3C10.0743 3 7.90897 3.89687 6.28036 5.52548C4.65175 7.1541 3.75491 9.31937 3.75491 11.6225C3.75491 13.0815 4.12423 14.5151 4.82524 15.7851L3 21L8.21483 19.1748C9.48482 19.8757 10.9185 20.2451 12.3774 20.2451C14.6806 20.2451 16.8459 19.3482 18.4745 17.7196C20.1031 16.091 21 13.9257 21 11.6225C21 9.31934 20.1031 7.15406 18.4745 5.52548ZM16.6401 14.8257L15.6446 15.8211C14.82 16.6458 12.4802 15.643 10.4186 13.5814C8.35697 11.5198 7.35421 9.18001 8.17887 8.35535L9.17428 7.35994C9.38044 7.15378 9.7147 7.15378 9.92086 7.35994L11.1651 8.60422C11.3713 8.81038 11.3713 9.14464 11.1651 9.3508L10.4186 10.0974C11.1427 11.6262 12.3738 12.8572 13.9026 13.5814L14.6492 12.8348C14.8554 12.6287 15.1896 12.6287 15.3958 12.8348L16.6401 14.0791C16.8463 14.2853 16.8463 14.6195 16.6401 14.8257Z" fill="black" fill-opacity="0.6"/>
</svg>
