<svg width="48" height="48" viewBox="0 0 48 48" fill="none" xmlns="http://www.w3.org/2000/svg">
<path fill-rule="evenodd" clip-rule="evenodd" d="M8.04255 7C6.3622 7 5 8.3622 5 10.0426V26.9574C5 27.3237 5.06471 27.6748 5.18331 28H5.04255C3.3622 28 2 29.3622 2 31.0426V35C2 35.5523 2.44772 36 3 36C3.55228 36 4 35.5523 4 35V31.0426C4 30.4668 4.46677 30 5.04255 30H8.04255H9H24.9574C26.6378 30 28 28.6378 28 26.9574V18.0426C28 17.4668 28.4668 17 29.0426 17H42.9574C43.5332 17 44 17.4668 44 18.0426V25H34.0426C33.4668 25 33 24.5332 33 23.9574V19C33 18.4477 32.5523 18 32 18C31.4477 18 31 18.4477 31 19V23.9574C31 25.6378 32.3622 27 34.0426 27H44V33.9574C44 34.5332 43.5332 35 42.9574 35H42C41.4477 35 41 35.4477 41 36C41 36.5523 41.4477 37 42 37H42.9574C44.6378 37 46 35.6378 46 33.9574V26V18.0426C46 16.3622 44.6378 15 42.9574 15H29.0426C27.3622 15 26 16.3622 26 18.0426V26.9574C26 27.5332 25.5332 28 24.9574 28H9H8.04255C7.46677 28 7 27.5332 7 26.9574V10.0426C7 9.46677 7.46677 9 8.04255 9H11V11.9574C11 13.6378 12.3622 15 14.0426 15H16.9574C18.6378 15 20 13.6378 20 11.9574V11C20 10.4477 19.5523 10 19 10C18.4477 10 18 10.4477 18 11V11.9574C18 12.5332 17.5332 13 16.9574 13H14.0426C13.4668 13 13 12.5332 13 11.9574V9H24.9574C25.5332 9 26 9.46677 26 10.0426V12C26 12.5523 26.4477 13 27 13C27.5523 13 28 12.5523 28 12V10.0426C28 8.3622 26.6378 7 24.9574 7H12H8.04255ZM22 35C21.4477 35 21 35.4477 21 36C21 36.5523 21.4477 37 22 37H30C30.5523 37 31 36.5523 31 36C31 35.4477 30.5523 35 30 35H22ZM38 36C38 37.1046 37.1046 38 36 38C34.8954 38 34 37.1046 34 36C34 34.8954 34.8954 34 36 34C37.1046 34 38 34.8954 38 36ZM40 36C40 38.2091 38.2091 40 36 40C33.7909 40 32 38.2091 32 36C32 33.7909 33.7909 32 36 32C38.2091 32 40 33.7909 40 36ZM16 38C17.1046 38 18 37.1046 18 36C18 34.8954 17.1046 34 16 34C14.8954 34 14 34.8954 14 36C14 37.1046 14.8954 38 16 38ZM16 40C18.2091 40 20 38.2091 20 36C20 33.7909 18.2091 32 16 32C14.494 32 13.1824 32.8323 12.5 34.062C11.8176 32.8323 10.506 32 9 32C6.79086 32 5 33.7909 5 36C5 38.2091 6.79086 40 9 40C10.506 40 11.8176 39.1677 12.5 37.938C13.1824 39.1677 14.494 40 16 40ZM11 36C11 37.1046 10.1046 38 9 38C7.89543 38 7 37.1046 7 36C7 34.8954 7.89543 34 9 34C10.1046 34 11 34.8954 11 36Z" fill="black" fill-opacity="0.6"/>
</svg>
