<svg width="44" height="44" viewBox="0 0 44 44" fill="none" xmlns="http://www.w3.org/2000/svg">
<path d="M30.6193 15.3205L30.6196 15.3208C31.0618 15.7354 31.4089 16.2241 31.6444 16.7573C31.8798 17.2903 32 17.8591 32 18.4319C32 19.0046 31.8798 19.5734 31.6444 20.1064C31.4089 20.6396 31.0618 21.1283 30.6196 21.5429L30.6194 21.5431L29.5038 22.5896L21.9997 29.6289L14.4956 22.5896L13.38 21.5431C12.4881 20.7064 12 19.5858 12 18.4319C12 17.278 12.4881 16.1574 13.38 15.3207C14.2741 14.4819 15.4997 14.0005 16.79 14.0005C18.0802 14.0005 19.3058 14.4819 20.1999 15.3207L21.3156 16.3672L21.9997 17.009L22.6839 16.3672L23.7995 15.3207L23.7997 15.3205C24.2418 14.9056 24.7701 14.5734 25.3559 14.3457L24.9936 13.4136L25.3559 14.3457C25.9418 14.1179 26.5719 14 27.2095 14C27.8471 14 28.4771 14.1179 29.063 14.3457C29.6489 14.5734 30.1772 14.9056 30.6193 15.3205Z" stroke="black" stroke-opacity="0.6" stroke-width="2"/>
</svg>
