<svg width="24" height="24" viewBox="0 0 24 24" fill="none" xmlns="http://www.w3.org/2000/svg">
<path d="M16.4272 3.45097C13.2785 2.84968 10.0088 2.84968 6.86012 3.45097C5.46745 3.75162 3.71147 5.43525 3.40872 6.7581C2.86376 9.34368 2.86376 11.9894 3.40872 14.575C3.77202 15.8978 5.528 17.5814 6.86012 17.8821C6.92067 17.8821 6.98122 17.9422 6.98122 18.0023V21.7905C6.98122 21.9709 7.22342 22.0912 7.34453 21.9108L9.16105 20.0467C9.16105 20.0467 10.6143 18.5435 10.8565 18.303C10.8565 18.303 10.917 18.2429 10.9776 18.2429C12.7941 18.303 14.6712 18.1226 16.4877 17.822C17.8804 17.5213 19.6364 15.8377 19.9391 14.5148C20.4841 11.9292 20.4841 9.28355 19.9391 6.69797C19.5758 5.43525 17.8198 3.75162 16.4272 3.45097ZM16.4877 14.7553C16.185 15.3566 15.8216 15.8377 15.2161 16.1383C15.0345 16.1985 14.8528 16.2586 14.6712 16.3187C14.429 16.2586 14.2473 16.1985 14.0657 16.1383C12.128 15.3566 10.3115 14.2743 8.8583 12.7109C8.07114 11.809 7.40507 10.7868 6.86012 9.70445C6.61791 9.16329 6.37571 8.68225 6.19406 8.14108C6.01241 7.66005 6.31516 7.17901 6.61791 6.81823C6.92067 6.45745 7.28397 6.21693 7.70783 6.03655C8.01058 5.85616 8.31334 5.97642 8.55554 6.21694C9.03995 6.81823 9.52436 7.41953 9.88766 8.08095C10.1299 8.50186 10.0693 8.9829 9.64546 9.28355C9.52435 9.34367 9.4638 9.40381 9.3427 9.52406C9.28215 9.58419 9.16105 9.64432 9.1005 9.76458C8.9794 9.94497 8.9794 10.1254 9.03995 10.3057C9.52435 11.6887 10.4326 12.7711 11.8253 13.3724C12.0675 13.4926 12.2491 13.5527 12.5519 13.5527C12.9758 13.4926 13.1574 13.0116 13.4602 12.7711C13.7629 12.5305 14.1262 12.5305 14.4895 12.7109C14.7923 12.8913 15.095 13.1318 15.4583 13.3724C15.7611 13.6129 16.0638 13.7933 16.3666 14.0338C16.5483 14.154 16.6088 14.4547 16.4877 14.7553ZM13.9446 10.2456C13.8235 10.2456 13.884 10.2456 13.9446 10.2456C13.7024 10.2456 13.6418 10.1254 13.5813 9.94497C13.5813 9.82471 13.5813 9.64432 13.5207 9.52406C13.4602 9.28355 13.3391 9.04303 13.0969 8.86264C12.9758 8.80251 12.8547 8.74238 12.7336 8.68225C12.5519 8.62212 12.4308 8.62212 12.2491 8.62212C12.0675 8.56199 12.0069 8.44173 12.0069 8.26134C12.0069 8.14108 12.1886 8.02082 12.3097 8.02082C13.2785 8.08095 14.0051 8.62212 14.1262 9.76458C14.1262 9.82471 14.1262 9.94497 14.1262 10.0051C14.1262 10.1254 14.0657 10.2456 13.9446 10.2456ZM13.3391 7.59992C13.0363 7.47966 12.7336 7.3594 12.3702 7.29927C12.2491 7.29927 12.0675 7.23914 11.9464 7.23914C11.7647 7.23914 11.6436 7.11888 11.7042 6.93849C11.7042 6.7581 11.8253 6.63784 12.0069 6.69797C12.6125 6.7581 13.1574 6.87836 13.7024 7.11888C14.7923 7.66005 15.3978 8.56199 15.5794 9.76458C15.5794 9.82471 15.5794 9.88484 15.5794 9.94497C15.5794 10.0652 15.5794 10.1855 15.5794 10.3659C15.5794 10.426 15.5794 10.4861 15.5794 10.5463C15.5189 10.7868 15.095 10.8469 15.0345 10.5463C15.0345 10.4861 14.9739 10.3659 14.9739 10.3057C14.9739 9.76458 14.8528 9.22342 14.6106 8.74238C14.2473 8.20121 13.8235 7.84043 13.3391 7.59992ZM16.6088 11.2077C16.4272 11.2077 16.3061 11.0273 16.3061 10.8469C16.3061 10.4861 16.2455 10.1254 16.185 9.76458C15.9427 7.84043 14.3684 6.27706 12.4914 5.97642C12.1886 5.91629 11.8858 5.91629 11.6436 5.85616C11.462 5.85616 11.2198 5.85616 11.1592 5.61564C11.0987 5.43525 11.2803 5.25486 11.462 5.25486C11.5225 5.25486 11.5831 5.25486 11.5831 5.25486C14.0657 5.31499 11.7042 5.25486 11.5831 5.25486C14.1262 5.31499 16.2455 6.99862 16.6694 9.52406C16.7299 9.94497 16.7905 10.3659 16.7905 10.8469C16.9116 11.0273 16.7905 11.2077 16.6088 11.2077Z" fill="white" fill-opacity="0.7"/>
</svg>
