<svg width="24" height="24" viewBox="0 0 24 24" fill="none" xmlns="http://www.w3.org/2000/svg">
<path d="M20.4156 13.3442C20.474 12.8766 20.5325 12.4675 20.5325 12C20.5325 7.32468 16.7338 3.46753 12 3.46753C11.5325 3.46753 11.1234 3.52597 10.6558 3.58442C9.8961 3.17532 9.07792 3 8.25974 3C5.33766 3 3 5.33766 3 8.25974C3 9.07792 3.17532 9.8961 3.58442 10.6558C3.52597 11.1234 3.46753 11.5325 3.46753 12C3.46753 16.6753 7.26623 20.5325 12 20.5325C12.4675 20.5325 12.8766 20.474 13.3442 20.4156C14.1039 20.7662 14.9221 21 15.7403 21C18.6623 21 21 18.6623 21 15.7403C21 14.9221 20.7662 14.1039 20.4156 13.3442ZM15.5649 15.0974C15.3896 15.4481 15.1558 15.7403 14.8052 15.974C14.4545 16.2078 14.1039 16.3831 13.6364 16.5C13.1688 16.6169 12.6429 16.6753 12.0584 16.6753C10.8312 16.6753 9.83766 16.3831 9.13636 15.8571C8.72727 15.5065 8.37662 15.0974 8.2013 14.5714C7.96753 14.1039 8.37662 13.5195 8.96104 13.5195H9.13636C9.48701 13.5195 9.83766 13.7532 9.95455 14.0455C10.0714 14.3377 10.2468 14.5714 10.4805 14.7468C10.8312 15.039 11.3571 15.1558 12 15.1558C12.5844 15.1558 13.0519 15.039 13.4026 14.8636C13.7532 14.6883 13.9286 14.3377 13.9286 13.987C13.9286 13.8117 13.8701 13.6948 13.8117 13.5779C13.7532 13.461 13.5779 13.3442 13.461 13.2857C13.2857 13.1688 13.1104 13.1104 12.8182 13.0519C12.5844 12.9935 12.2922 12.8766 11.9416 12.8182L11.5909 12.7013C11.1818 12.5844 10.7143 12.4675 10.3636 12.3506C9.95455 12.2338 9.6039 12.0584 9.31169 11.8831C9.01948 11.7078 8.78571 11.474 8.61039 11.1234C8.43507 10.8312 8.37662 10.4221 8.37662 9.95455C8.37662 9.48701 8.49351 9.07792 8.66883 8.72727C8.84416 8.37662 9.13636 8.08442 9.42857 7.90909C9.77922 7.67532 10.1299 7.5 10.5974 7.44156C11.0065 7.32468 11.474 7.26623 12 7.26623C12.5844 7.26623 13.0519 7.32468 13.5195 7.44156C13.987 7.55844 14.3377 7.73377 14.6883 8.02597C15.039 8.25974 15.2727 8.55195 15.4481 8.96104C15.7403 9.48701 15.3312 10.1883 14.6883 10.1883H14.513C14.1623 10.1883 13.8701 10.013 13.6948 9.72078C13.5779 9.54545 13.461 9.37013 13.2857 9.19481C12.9935 8.96104 12.526 8.84416 12 8.84416C11.474 8.84416 11.0649 8.96104 10.7727 9.13636C10.4805 9.31169 10.3636 9.6039 10.3636 9.8961C10.3636 10.0714 10.4221 10.1883 10.4805 10.3052C10.539 10.4221 10.6558 10.539 10.8312 10.5974C11.0065 10.6558 11.1818 10.7727 11.4156 10.8312C11.6494 10.8896 11.9416 10.9481 12.2922 11.0649C12.6429 11.1234 12.9351 11.2403 13.2857 11.2987C13.5779 11.3571 13.8701 11.474 14.1623 11.5325C14.4545 11.6494 14.6883 11.7662 14.9221 11.8831C15.1558 12 15.3312 12.1753 15.5065 12.3506C15.6818 12.526 15.7987 12.7597 15.8571 12.9935C15.974 13.2273 15.974 13.5779 15.974 13.9286C15.8571 14.3377 15.7403 14.7468 15.5649 15.0974Z" fill="black" fill-opacity="0.6"/>
</svg>
