<svg width="13" height="24" viewBox="0 0 13 24" fill="none" xmlns="http://www.w3.org/2000/svg">
<path d="M9.83002 0.580078H2.55002C1.14169 0.580078 0 1.72176 0 3.13008V21.0201C0 22.4284 1.14169 23.5701 2.55002 23.5701H9.83002C11.2383 23.5701 12.38 22.4284 12.38 21.0201V3.13008C12.38 1.72176 11.2383 0.580078 9.83002 0.580078Z" fill="#262626"/>
<path d="M9.82996 0.579599H2.53995C2.43016 0.569821 2.31974 0.569821 2.20996 0.579599V23.4996H2.53995H9.82996C10.5045 23.497 11.1506 23.2271 11.6266 22.7492C12.1027 22.2713 12.3699 21.6242 12.3699 20.9496V3.1596C12.3739 2.82305 12.3112 2.48905 12.1855 2.17686C12.0597 1.86466 11.8734 1.58044 11.6373 1.3406C11.4011 1.10076 11.1199 0.910039 10.8097 0.779428C10.4995 0.648817 10.1665 0.580895 9.82996 0.579599Z" fill="#F5F5F5"/>
</svg>
