<svg width="24" height="24" viewBox="0 0 24 24" fill="none" xmlns="http://www.w3.org/2000/svg">
<rect x="3" y="23" width="22" height="18" rx="2" transform="rotate(-90 3 23)" stroke="black" stroke-opacity="0.6" stroke-width="2"/>
<rect x="15" y="19" width="2" height="6" rx="1" transform="rotate(90 15 19)" fill="black" fill-opacity="0.6"/>
</svg>
