<svg version="1.1" id="X" xmlns="http://www.w3.org/2000/svg" xmlns:xlink="http://www.w3.org/1999/xlink" x="0px" y="0px"
	 viewBox="0 0 1920 1920" style="enable-background:new 0 0 1920 1920;" xml:space="preserve">
<style type="text/css">
	.st0{fill:none;stroke:#ffffff;stroke-width:60;stroke-linecap:round;stroke-linejoin:round;stroke-miterlimit:10;}
</style>
<g id="STROKES">
	<g id="XMLID_2_">
		<circle class="st0" cx="960" cy="960" r="437.5"/>
		<circle class="st0" cx="960" cy="960" r="170.5"/>
		<path class="st0" d="M216.9,960c0,0,166.1-437.5,743-437.5"/>
		<path class="st0" d="M1703.1,960c0,0-166.1-437.5-743.1-437.5"/>
		<path class="st0" d="M1703.1,960c0,0-166.1,437.5-743.1,437.5"/>
		<path class="st0" d="M216.9,960c0,0,166.1,437.5,743,437.5"/>
	</g>
</g>
</svg>
