<svg width="800" height="800" viewBox="0 0 800 800" fill="none" xmlns="http://www.w3.org/2000/svg">
<rect width="800" height="800" fill="#F5F5F7"/>
<path d="M526.433 550.001H250C245.58 550.001 241.341 548.245 238.215 545.12C235.089 541.994 233.333 537.755 233.333 533.334V300.001C233.333 295.581 235.089 291.342 238.215 288.216C241.341 285.09 245.58 283.334 250 283.334H259.767L223.217 246.801L246.8 223.218L576.783 553.218L553.2 576.784L526.433 550.001ZM293.1 316.668H266.667V516.668H493.1L456.767 480.334C439.143 494.283 417.008 501.271 394.57 499.969C372.131 498.667 350.953 489.167 335.06 473.274C319.167 457.381 309.667 436.203 308.366 413.765C307.064 391.326 314.051 369.192 328 351.568L293.1 316.668ZM351.833 375.418C344.15 386.647 340.633 400.209 341.892 413.757C343.151 427.304 349.106 439.986 358.727 449.607C368.348 459.228 381.03 465.183 394.578 466.442C408.126 467.701 421.688 464.185 432.917 456.501L351.833 375.418ZM566.667 496.418L533.333 463.084V316.668H469.533L436.2 283.334H363.8L358.683 288.451L335.117 264.884L350 250.001H450L483.333 283.334H550C554.42 283.334 558.66 285.09 561.785 288.216C564.911 291.342 566.667 295.581 566.667 300.001V496.434V496.418ZM387.717 317.501C401.706 315.608 415.943 316.971 429.319 321.484C442.695 325.998 454.848 333.539 464.83 343.521C474.812 353.503 482.354 365.656 486.867 379.032C491.38 392.408 492.743 406.645 490.85 420.634L451.883 381.668C446.304 370.855 437.497 362.047 426.683 356.468L387.717 317.501Z" fill="#E1E1E6"/>
</svg>
