<svg width="96" height="96" viewBox="0 0 96 96" fill="none" xmlns="http://www.w3.org/2000/svg">
<path d="M96 48C96 74.5097 74.5097 96 48 96C21.4903 96 0 74.5097 0 48C0 21.4903 21.4903 0 48 0C74.5097 0 96 21.4903 96 48ZM8.016 48C8.016 70.0826 25.9174 87.984 48 87.984C70.0826 87.984 87.984 70.0826 87.984 48C87.984 25.9174 70.0826 8.016 48 8.016C25.9174 8.016 8.016 25.9174 8.016 48Z" fill="#F5F5F5"/>
</svg>
